{
  "rules": {
    ".read": false,
    ".write": false,
    "users": {
      ".read": "auth != null",
      ".write":
        "auth != null && root.child('users').child(auth.uid).child('role').val() === 'manager'",
      "$uid": {
        ".write": "auth.uid === $uid"
      },
      "role": {
        ".validate": "newData.val() === 'user' || newData.val() === 'manager'"
      }
    },
    "repairs": {
      ".read": "auth != null",
      ".indexOn": ["time", "userKey"],
      "$uid": {
        ".read":
          "auth != null && (root.child('users').child(auth.uid).child('role').val() === 'manager' || auth.uid === root.child('repairs').child($uid).child('userKey').val())",
        ".write":
          "auth != null && root.child('users').child(auth.uid).child('role').val() === 'manager'",
        "status": {
          ".write": "newData.val() === 'complete'",
          ".validate":
            "newData.val() === 'complete' || newData.val() === 'incomplete'"
        },
        "comments": {
          ".indexOn": ["date"],
          "$commentId": {
            ".write":
              "!data.exists() && auth.uid === root.child('repairs').child($uid).child('userKey').val()"
          }
        }
      }
    }
  }
}
